{
    "mappings": [{
        "src": "public/assets/source",
        "dest": "public/assets/pub"
    }],

    "ignores": [
        "*.min.js",
        "*.min.css",
        "*.lib.css",
        "public/assets/source/css/bootstrap",
        "public/assets/source/css/libs",
        "public/assets/source/js/libs",
        "public/assets/pub", "vendor/",
        "_*"],

    "options": {
        "bare": false,
        "literate": false,
        "outputStyle": "compress",
        "lineComments": true,
        "debugInfo": false,
        "strictMath": false,
        "strictUnits": false,
        "sourceMap": false
    },

    "customOptions": []
}